%YAML 1.1
%TAG !u! tag:unity3d.com,2011:
--- !u!21 &2100000
Material:
  serializedVersion: 6
  m_ObjectHideFlags: 0
  m_CorrespondingSourceObject: {fileID: 0}
  m_PrefabInstance: {fileID: 0}
  m_PrefabAsset: {fileID: 0}
  m_Name: Shader Graphs_WaterOcean 1
  m_Shader: {fileID: -6465566751694194690, guid: 240063b8e2bfe5844bc4cb2cf46b2429,
    type: 3}
  m_ShaderKeywords: 
  m_LightmapFlags: 4
  m_EnableInstancingVariants: 0
  m_DoubleSidedGI: 0
  m_CustomRenderQueue: -1
  stringTagMap: {}
  disabledShaderPasses: []
  m_SavedProperties:
    serializedVersion: 3
    m_TexEnvs:
    - Texture2D_81326368:
        m_Texture: {fileID: 2800000, guid: d175cd22a7c4e4b4fa0a928977b37ef0, type: 3}
        m_Scale: {x: 1, y: 1}
        m_Offset: {x: 0, y: 0}
    - Texture2D_A97960A4:
        m_Texture: {fileID: 2800000, guid: 003682e8a8570b446bc9090bfadb6be8, type: 3}
        m_Scale: {x: 1, y: 1}
        m_Offset: {x: 0, y: 0}
    m_Floats:
    - Vector1_200ABEE7: 1.32
    - Vector1_20B66CEC: 0.3
    - Vector1_379A466A: 2.88
    - Vector1_4FA09AE1: 10
    - Vector1_636EEA28: 5.86
    - Vector1_6C24CB06: -1.81
    - Vector1_6CF5F0C2: 1.07
    - Vector1_9671509B: 1.87
    - Vector1_981595FC: 0.05
    - Vector1_C93A42A6: 0.02
    - Vector1_D6E7012B: 0.5
    - Vector1_D831D043: 0.14
    m_Colors:
    - Color_4C229893: {r: 0.13995194, g: 0.28160346, b: 0.3490566, a: 0}
    - Color_534D6829: {r: 0.3245372, g: 0.34189212, b: 0.3679245, a: 0}
    - Color_8E013752: {r: 0.13968495, g: 0.3315361, b: 0.4056604, a: 0}
