%YAML 1.1
%TAG !u! tag:unity3d.com,2011:
--- !u!1045 &1
EditorBuildSettings:
  m_ObjectHideFlags: 0
  serializedVersion: 2
  m_Scenes:
  - enabled: 1
    path: Assets/Scenes/Cameras.unity
    guid: d6a95ac7838937e4a9162e81392e945d
  - enabled: 1
    path: Assets/Scenes/World Map.unity
    guid: 184b7cc4d7d96bd4e8430acf2d901de9
  - enabled: 1
    path: Assets/Scenes/User Interface.unity
    guid: 1797b78d9bad4944088200a51db4fcc5
  m_configObjects: {}
